{
  "data": [
    {
      "created_at": 1586615278,
      "device_type": "home_bike_v1",
      "end_time": 1586615579,
      "fitbit_id": null,
      "fitness_discipline": "stretching",
      "has_pedaling_metrics": false,
      "has_leaderboard_metrics": false,
      "id": "f813e2143150469c9aed108a40ca61ef",
      "is_total_work_personal_record": false,
      "metrics_type": null,
      "name": "Stretching Workout",
      "peloton_id": "e32609563fb74dbca2c7a21f8df20465",
      "platform": "home_bike",
      "start_time": 1586615281,
      "strava_id": "-1",
      "status": "COMPLETE",
      "timezone": "America/New_York",
      "title": null,
      "total_work": 0.0,
      "user_id": "aaaaaaaaaaaaaaaaaaaaaaaaaaaaaaaa",
      "workout_type": "class",
      "created": 1586615278,
      "device_time_created_at": 1586600878
    },
    {
      "created_at": 1586609724,
      "device_type": "home_bike_v1",
      "end_time": 1586615184,
      "fitbit_id": null,
      "fitness_discipline": "cycling",
      "has_pedaling_metrics": true,
      "has_leaderboard_metrics": true,
      "id": "3218e9699ab44d79930f31c8bfd0c56f",
      "is_total_work_personal_record": true,
      "metrics_type": "cycling",
      "name": "Cycling Workout",
      "peloton_id": "875c67f95b734258b5eb56e391ad13c1",
      "platform": "home_bike",
      "start_time": 1586609786,
      "strava_id": "-1",
      "status": "COMPLETE",
      "timezone": "America/New_York",
      "title": null,
      "total_work": 649540.29,
      "user_id": "aaaaaaaaaaaaaaaaaaaaaaaaaaaaaaaa",
      "workout_type": "class",
      "created": 1586609724,
      "device_time_created_at": 1586595324
    },
    {
      "created_at": 1586172220,
      "device_type": "iPhone",
      "end_time": 1586172901,
      "fitbit_id": null,
      "fitness_discipline": "meditation",
      "has_pedaling_metrics": false,
      "has_leaderboard_metrics": false,
      "id": "b86e8d85306c4fc6b3c235e6a8c0eb59",
      "is_total_work_personal_record": false,
      "metrics_type": null,
      "name": "Meditation Workout",
      "peloton_id": "803e398b7e7b4d73bc8873945be71e3a",
      "platform": "iOS_app",
      "start_time": 1586172310,
      "strava_id": "-1",
      "status": "COMPLETE",
      "timezone": "America/New_York",
      "title": null,
      "total_work": 0.0,
      "user_id": "aaaaaaaaaaaaaaaaaaaaaaaaaaaaaaaa",
      "workout_type": "class",
      "created": 1586172220,
      "device_time_created_at": 1586157820
    },
    {
      "created_at": 1586096347,
      "device_type": "home_bike_v1",
      "end_time": 1586097307,
      "fitbit_id": null,
      "fitness_discipline": "cycling",
      "has_pedaling_metrics": true,
      "has_leaderboard_metrics": true,
      "id": "4bbf6548f3fd48dc861ee32d93f6578d",
      "is_total_work_personal_record": false,
      "metrics_type": "cycling",
      "name": "Cycling Workout",
      "peloton_id": "54e6d8313afe4da482c263ddcfbf8921",
      "platform": "home_bike",
      "start_time": 1586096409,
      "strava_id": null,
      "status": "COMPLETE",
      "timezone": "America/New_York",
      "title": null,
      "total_work": 64039.4,
      "user_id": "aaaaaaaaaaaaaaaaaaaaaaaaaaaaaaaa",
      "workout_type": "class",
      "created": 1586096347,
      "device_time_created_at": 1586081947
    },
    {
      "created_at": 1586092632,
      "device_type": "home_bike_v1",
      "end_time": 1586096291,
      "fitbit_id": null,
      "fitness_discipline": "cycling",
      "has_pedaling_metrics": true,
      "has_leaderboard_metrics": true,
      "id": "6f12303af6734281a74a31835dbe8ab6",
      "is_total_work_personal_record": false,
      "metrics_type": "cycling",
      "name": "Cycling Workout",
      "peloton_id": "e41fb5c877a047fea99da78cda086b00",
      "platform": "home_bike",
      "start_time": 1586092692,
      "strava_id": "-1",
      "status": "COMPLETE",
      "timezone": "America/New_York",
      "title": null,
      "total_work": 448575.37,
      "user_id": "aaaaaaaaaaaaaaaaaaaaaaaaaaaaaaaa",
      "workout_type": "class",
      "created": 1586092632,
      "device_time_created_at": 1586078232
    },
    {
      "created_at": 1586010283,
      "device_type": "home_bike_v1",
      "end_time": 1586010583,
      "fitbit_id": null,
      "fitness_discipline": "stretching",
      "has_pedaling_metrics": false,
      "has_leaderboard_metrics": false,
      "id": "ef89dc1a8f844367ae196956fbf9c405",
      "is_total_work_personal_record": false,
      "metrics_type": null,
      "name": "Stretching Workout",
      "peloton_id": "b54c2f10b6634fa38c98a5e9c9963993",
      "platform": "home_bike",
      "start_time": 1586010284,
      "strava_id": "-1",
      "status": "COMPLETE",
      "timezone": "America/New_York",
      "title": null,
      "total_work": 0.0,
      "user_id": "aaaaaaaaaaaaaaaaaaaaaaaaaaaaaaaa",
      "workout_type": "class",
      "created": 1586010283,
      "device_time_created_at": 1585995883
    },
    {
      "created_at": 1586008364,
      "device_type": "home_bike_v1",
      "end_time": 1586010224,
      "fitbit_id": null,
      "fitness_discipline": "cycling",
      "has_pedaling_metrics": true,
      "has_leaderboard_metrics": true,
      "id": "86a4a54b12ec4855ba39f4fb6cfc825e",
      "is_total_work_personal_record": false,
      "metrics_type": "cycling",
      "name": "Cycling Workout",
      "peloton_id": "38addddc3fee4c1e8fb5a0908b2e9221",
      "platform": "home_bike",
      "start_time": 1586008425,
      "strava_id": "-1",
      "status": "COMPLETE",
      "timezone": "America/New_York",
      "title": null,
      "total_work": 118059.7,
      "user_id": "aaaaaaaaaaaaaaaaaaaaaaaaaaaaaaaa",
      "workout_type": "class",
      "created": 1586008364,
      "device_time_created_at": 1585993964
    },
    {
      "created_at": 1586004633,
      "device_type": "home_bike_v1",
      "end_time": 1586008293,
      "fitbit_id": null,
      "fitness_discipline": "cycling",
      "has_pedaling_metrics": true,
      "has_leaderboard_metrics": true,
      "id": "214a3b86e77f4c358fa0b2c01c49482f",
      "is_total_work_personal_record": false,
      "metrics_type": "cycling",
      "name": "Cycling Workout",
      "peloton_id": "367d300d9c034fa49e44697bdc8407f4",
      "platform": "home_bike",
      "start_time": 1586004694,
      "strava_id": "-1",
      "status": "COMPLETE",
      "timezone": "America/New_York",
      "title": null,
      "total_work": 447980.77,
      "user_id": "aaaaaaaaaaaaaaaaaaaaaaaaaaaaaaaa",
      "workout_type": "class",
      "created": 1586004633,
      "device_time_created_at": 1585990233
    },
    {
      "created_at": 1585912341,
      "device_type": "home_bike_v1",
      "end_time": 1585912641,
      "fitbit_id": null,
      "fitness_discipline": "stretching",
      "has_pedaling_metrics": false,
      "has_leaderboard_metrics": false,
      "id": "e4daf1841f07411d852b0849fa0ff5f2",
      "is_total_work_personal_record": false,
      "metrics_type": null,
      "name": "Stretching Workout",
      "peloton_id": "17ff6ffde8c94649b9e77f3c691c0275",
      "platform": "home_bike",
      "start_time": 1585912343,
      "strava_id": "-1",
      "status": "COMPLETE",
      "timezone": "America/New_York",
      "title": null,
      "total_work": 0.0,
      "user_id": "aaaaaaaaaaaaaaaaaaaaaaaaaaaaaaaa",
      "workout_type": "class",
      "created": 1585912341,
      "device_time_created_at": 1585897941
    },
    {
      "created_at": 1585910431,
      "device_type": "home_bike_v1",
      "end_time": 1585912290,
      "fitbit_id": null,
      "fitness_discipline": "cycling",
      "has_pedaling_metrics": true,
      "has_leaderboard_metrics": true,
      "id": "00f780fbbee941c6924685c9a606c417",
      "is_total_work_personal_record": false,
      "metrics_type": "cycling",
      "name": "Cycling Workout",
      "peloton_id": "6cfe08022b514875b7accf9205631ea4",
      "platform": "home_bike",
      "start_time": 1585910492,
      "strava_id": "-1",
      "status": "COMPLETE",
      "timezone": "America/New_York",
      "title": null,
      "total_work": 211032.39,
      "user_id": "aaaaaaaaaaaaaaaaaaaaaaaaaaaaaaaa",
      "workout_type": "class",
      "created": 1585910431,
      "device_time_created_at": 1585896031
    },
    {
      "created_at": 1585824089,
      "device_type": "home_bike_v1",
      "end_time": 1585825948,
      "fitbit_id": null,
      "fitness_discipline": "cycling",
      "has_pedaling_metrics": true,
      "has_leaderboard_metrics": true,
      "id": "08fc9525977a43fb9bdb6b428e11bfec",
      "is_total_work_personal_record": false,
      "metrics_type": "cycling",
      "name": "Cycling Workout",
      "peloton_id": "23c777e7147b4b56a461d2ed55dbaf9b",
      "platform": "home_bike",
      "start_time": 1585824151,
      "strava_id": "-1",
      "status": "COMPLETE",
      "timezone": "America/New_York",
      "title": null,
      "total_work": 173398.49,
      "user_id": "aaaaaaaaaaaaaaaaaaaaaaaaaaaaaaaa",
      "workout_type": "class",
      "created": 1585824089,
      "device_time_created_at": 1585809689
    },
    {
      "created_at": 1585737362,
      "device_type": "home_bike_v1",
      "end_time": 1585740122,
      "fitbit_id": null,
      "fitness_discipline": "cycling",
      "has_pedaling_metrics": true,
      "has_leaderboard_metrics": true,
      "id": "7e5b0a0e488f49caa4c62027fb026dd8",
      "is_total_work_personal_record": false,
      "metrics_type": "cycling",
      "name": "Cycling Workout",
      "peloton_id": "6ed3b22403324dc4bf3d53a7479e6a2c",
      "platform": "home_bike",
      "start_time": 1585737422,
      "strava_id": "-1",
      "status": "COMPLETE",
      "timezone": "America/New_York",
      "title": null,
      "total_work": 315165.57,
      "user_id": "aaaaaaaaaaaaaaaaaaaaaaaaaaaaaaaa",
      "workout_type": "class",
      "created": 1585737362,
      "device_time_created_at": 1585722962
    },
    {
      "created_at": 1585653133,
      "device_type": "home_bike_v1",
      "end_time": 1585653434,
      "fitbit_id": null,
      "fitness_discipline": "stretching",
      "has_pedaling_metrics": false,
      "has_leaderboard_metrics": false,
      "id": "a17e231bb8d44e4f9dceafdfebe8d8f9",
      "is_total_work_personal_record": false,
      "metrics_type": null,
      "name": "Stretching Workout",
      "peloton_id": "dd146d0732d84070a209f724e76ffb8c",
      "platform": "home_bike",
      "start_time": 1585653137,
      "strava_id": "-1",
      "status": "COMPLETE",
      "timezone": "America/New_York",
      "title": null,
      "total_work": 0.0,
      "user_id": "aaaaaaaaaaaaaaaaaaaaaaaaaaaaaaaa",
      "workout_type": "class",
      "created": 1585653133,
      "device_time_created_at": 1585638733
    },
    {
      "created_at": 1585650309,
      "device_type": "home_bike_v1",
      "end_time": 1585653069,
      "fitbit_id": null,
      "fitness_discipline": "cycling",
      "has_pedaling_metrics": true,
      "has_leaderboard_metrics": true,
      "id": "ec60e27f8452435d8fa4bcd75db73e2a",
      "is_total_work_personal_record": false,
      "metrics_type": "cycling",
      "name": "Cycling Workout",
      "peloton_id": "35b9cf1a3e394663acbddd916366ad83",
      "platform": "home_bike",
      "start_time": 1585650370,
      "strava_id": "-1",
      "status": "COMPLETE",
      "timezone": "America/New_York",
      "title": null,
      "total_work": 343753.78,
      "user_id": "aaaaaaaaaaaaaaaaaaaaaaaaaaaaaaaa",
      "workout_type": "class",
      "created": 1585650309,
      "device_time_created_at": 1585635909
    },
    {
      "created_at": 1585565899,
      "device_type": "home_bike_v1",
      "end_time": 1585566200,
      "fitbit_id": null,
      "fitness_discipline": "stretching",
      "has_pedaling_metrics": false,
      "has_leaderboard_metrics": false,
      "id": "9b24bb728dec4d18a51ed05ebdb411ef",
      "is_total_work_personal_record": false,
      "metrics_type": null,
      "name": "Stretching Workout",
      "peloton_id": "0e6901d5e71841f7a4c23d29db1cbd48",
      "platform": "home_bike",
      "start_time": 1585565902,
      "strava_id": "-1",
      "status": "COMPLETE",
      "timezone": "America/New_York",
      "title": null,
      "total_work": 0.0,
      "user_id": "aaaaaaaaaaaaaaaaaaaaaaaaaaaaaaaa",
      "workout_type": "class",
      "created": 1585565899,
      "device_time_created_at": 1585551499
    },
    {
      "created_at": 1585563015,
      "device_type": "home_bike_v1",
      "end_time": 1585565774,
      "fitbit_id": null,
      "fitness_discipline": "cycling",
      "has_pedaling_metrics": true,
      "has_leaderboard_metrics": true,
      "id": "1ee65a0fca88404e848911e8f247858a",
      "is_total_work_personal_record": false,
      "metrics_type": "cycling",
      "name": "Cycling Workout",
      "peloton_id": "e7e911ebb4de490c8276f61e1ec9afc3",
      "platform": "home_bike",
      "start_time": 1585563075,
      "strava_id": "-1",
      "status": "COMPLETE",
      "timezone": "America/New_York",
      "title": null,
      "total_work": 350906.13,
      "user_id": "aaaaaaaaaaaaaaaaaaaaaaaaaaaaaaaa",
      "workout_type": "class",
      "created": 1585563015,
      "device_time_created_at": 1585548615
    },
    {
      "created_at": 1585490484,
      "device_type": "home_bike_v1",
      "end_time": 1585492344,
      "fitbit_id": null,
      "fitness_discipline": "cycling",
      "has_pedaling_metrics": true,
      "has_leaderboard_metrics": true,
      "id": "845306712b3644ea99fd5816aca4b916",
      "is_total_work_personal_record": false,
      "metrics_type": "cycling",
      "name": "Cycling Workout",
      "peloton_id": "f827641b88f8448e9a9cb40868633b70",
      "platform": "home_bike",
      "start_time": 1585490544,
      "strava_id": "-1",
      "status": "COMPLETE",
      "timezone": "America/New_York",
      "title": null,
      "total_work": 176595.39,
      "user_id": "aaaaaaaaaaaaaaaaaaaaaaaaaaaaaaaa",
      "workout_type": "class",
      "created": 1585490484,
      "device_time_created_at": 1585476084
    },
    {
      "created_at": 1585487682,
      "device_type": "home_bike_v1",
      "end_time": 1585490441,
      "fitbit_id": null,
      "fitness_discipline": "cycling",
      "has_pedaling_metrics": true,
      "has_leaderboard_metrics": true,
      "id": "3cd81a2b2d9a46c098fabdaab6e2c8ed",
      "is_total_work_personal_record": false,
      "metrics_type": "cycling",
      "name": "Cycling Workout",
      "peloton_id": "a8ddc713204a4e76abf0fd262044587c",
      "platform": "home_bike",
      "start_time": 1585487743,
      "strava_id": null,
      "status": "COMPLETE",
      "timezone": "America/New_York",
      "title": null,
      "total_work": 335954.42,
      "user_id": "aaaaaaaaaaaaaaaaaaaaaaaaaaaaaaaa",
      "workout_type": "class",
      "created": 1585487682,
      "device_time_created_at": 1585473282
    },
    {
      "created_at": 1585403135,
      "device_type": "home_bike_v1",
      "end_time": 1585403436,
      "fitbit_id": null,
      "fitness_discipline": "stretching",
      "has_pedaling_metrics": false,
      "has_leaderboard_metrics": false,
      "id": "c08c6048622149788dd42ec95f40167d",
      "is_total_work_personal_record": false,
      "metrics_type": null,
      "name": "Stretching Workout",
      "peloton_id": "419d281060594644b1363a04b40fef4f",
      "platform": "home_bike",
      "start_time": 1585403137,
      "strava_id": "-1",
      "status": "COMPLETE",
      "timezone": "America/New_York",
      "title": null,
      "total_work": 0.0,
      "user_id": "aaaaaaaaaaaaaaaaaaaaaaaaaaaaaaaa",
      "workout_type": "class",
      "created": 1585403135,
      "device_time_created_at": 1585388735
    },
    {
      "created_at": 1585402380,
      "device_type": "home_bike_v1",
      "end_time": 1585403039,
      "fitbit_id": null,
      "fitness_discipline": "cycling",
      "has_pedaling_metrics": true,
      "has_leaderboard_metrics": true,
      "id": "f68c976f1d96445e895655de06eb3133",
      "is_total_work_personal_record": false,
      "metrics_type": "cycling",
      "name": "Cycling Workout",
      "peloton_id": "144fba8a3cbe4ff0a9bdf1177cdd99f0",
      "platform": "home_bike",
      "start_time": 1585402441,
      "strava_id": "-1",
      "status": "COMPLETE",
      "timezone": "America/New_York",
      "title": null,
      "total_work": 33020.24,
      "user_id": "aaaaaaaaaaaaaaaaaaaaaaaaaaaaaaaa",
      "workout_type": "class",
      "created": 1585402380,
      "device_time_created_at": 1585387980
    }
  ],
  "limit": 20,
  "page": 0,
  "total": 495,
  "count": 20,
  "page_count": 25,
  "show_previous": false,
  "show_next": true,
  "sort_by": "-created_at,-pk",
  "next": {
    "workout_id": "f68c976f1d96445e895655de06eb3133",
    "created_at": 1585402380
  },
  "summary": {
    "2020-04": 12,
    "2020-03": 28,
    "2020-02": 21,
    "2020-01": 40,
    "2019-12": 19,
    "2019-11": 3,
    "2019-10": 18,
    "2019-09": 4,
    "2019-08": 20,
    "2019-07": 19,
    "2019-06": 32,
    "2019-05": 31,
    "2019-04": 16,
    "2019-03": 33,
    "2019-02": 45,
    "2019-01": 47,
    "2018-12": 38,
    "2018-11": 19,
    "2018-10": 23,
    "2018-09": 20,
    "2018-08": 7
  },
  "aggregate_stats": []
}